{
  "templates": [
    {
      "id": "diariefordahandlingochnamndeprotokoll-159",
      "label": {
        "sv": "Typ av nämnd",
        "en": "Type of committee"
      },
      "property": "http://www.w3.org/ns/org#classification",
      "nodetype": "URI",
      "type": "choice",
      "cardinality": {
        "min": 0
      },
      "constraints": {
        "http://www.w3.org/1999/02/22-rdf-syntax-ns#type": [
          "http://www.w3.org/2004/02/skos/core#Concept"
        ],
        "http://www.w3.org/2004/02/skos/core#inScheme": [
          "https://dataportal.se/concepts/organizationalunit"
        ]
      },
      "text": {
        "title": {
          "en": "Organizational Unit: classification "
        }
      },
      "about": {
        "rdfType": [
          "https://rdforms.org/terms/Field",
          "https://rdforms.org/terms/LookupField"
        ],
        "status": "https://rdforms.org/terms/unstable"
      }
    },
    {
      "id": "diariefordahandlingochnamndeprotokoll-5",
      "label": {
        "en": "Official name",
        "sv": "Officiellt namn"
      },
      "property": "http://www.w3.org/2004/02/skos/core#prefLabel",
      "nodetype": "LANGUAGE_LITERAL",
      "type": "text",
      "cardinality": {
        "min": 1
      },
      "text": {
        "title": {
          "en": "skos:prefLabel"
        }
      },
      "about": {
        "rdfType": [
          "https://rdforms.org/terms/Field",
          "https://rdforms.org/terms/TextField"
        ],
        "status": "https://rdforms.org/terms/unstable"
      }
    },
    {
      "id": "diariefordahandlingochnamndeprotokoll-8",
      "label": {
        "en": "Homepage",
        "sv": "Hemsida"
      },
      "property": "http://xmlns.com/foaf/0.1/homepage",
      "nodetype": "URI",
      "type": "text",
      "cardinality": {
        "min": 1,
        "max": 1
      },
      "text": {
        "title": {
          "en": "foaf:homepage"
        }
      },
      "about": {
        "rdfType": [
          "https://rdforms.org/terms/Field",
          "https://rdforms.org/terms/TextField"
        ],
        "status": "https://rdforms.org/terms/stable"
      }
    },
    {
      "id": "diariefordahandlingochnamndeprotokoll-18",
      "label": {
        "en": "Telephone number",
        "sv": "Telefonnummer"
      },
      "property": "http://schema.org/telephone",
      "nodetype": "LITERAL",
      "type": "text",
      "cardinality": {
        "pref": 1
      },
      "text": {
        "title": {
          "en": "schema:telephone"
        }
      },
      "about": {
        "rdfType": [
          "https://rdforms.org/terms/Field",
          "https://rdforms.org/terms/TextField"
        ],
        "status": "https://rdforms.org/terms/stable"
      }
    },
    {
      "id": "diariefordahandlingochnamndeprotokoll-19",
      "label": {
        "en": "Email",
        "sv": "Email"
      },
      "property": "http://schema.org/email",
      "nodetype": "ONLY_LITERAL",
      "type": "text",
      "cardinality": {
        "pref": 1
      },
      "text": {
        "title": {
          "en": "schema:email"
        }
      },
      "about": {
        "rdfType": [
          "https://rdforms.org/terms/Field",
          "https://rdforms.org/terms/TextField"
        ],
        "status": "https://rdforms.org/terms/unstable"
      }
    },
    {
      "id": "diariefordahandlingochnamndeprotokoll-161",
      "label": {
        "en": "Organizational Unit: unitOf > Organization",
        "sv": "Tillhör organisation"
      },
      "property": "http://www.w3.org/ns/org#unitOf",
      "nodetype": "URI",
      "type": "choice",
      "cardinality": {
        "min": 0
      },
      "constraints": {
        "http://www.w3.org/1999/02/22-rdf-syntax-ns#type": "http://www.w3.org/ns/org#Organization"
      },
      "text": {
        "title": {
          "en": "Organizational Unit: unitOf > Organization"
        }
      },
      "about": {
        "rdfType": [
          "https://rdforms.org/terms/Field",
          "https://rdforms.org/terms/LookupField"
        ],
        "status": "https://rdforms.org/terms/unstable"
      }
    },
    {
      "id": "diariefordahandlingochnamndeprotokoll-171",
      "label": {
        "en": "Was part of committee matter",
        "sv": "Delaktig i nämndsärende"
      },
      "property": "http://www.w3.org/ns/prov#wasAssociatedWith",
      "nodetype": "URI",
      "type": "choice",
      "cardinality": {
        "min": 0
      },
      "constraints": {
        "http://www.w3.org/1999/02/22-rdf-syntax-ns#type": [
          "http://www.w3.org/ns/prov#Activity"
        ]
      },
      "text": {
        "title": {
          "en": "Organizational Unit: was associated with > Committee matter"
        }
      },
      "about": {
        "rdfType": [
          "https://rdforms.org/terms/Field",
          "https://rdforms.org/terms/LookupField"
        ],
        "status": "https://rdforms.org/terms/unstable"
      }
    },
    {
      "id": "diariefordahandlingochnamndeprotokoll-54",
      "label": {
        "en": "Committee",
        "sv": "Nämnd"
      },
      "items": [
        "diariefordahandlingochnamndeprotokoll-159",
        "diariefordahandlingochnamndeprotokoll-5",
        "diariefordahandlingochnamndeprotokoll-8",
        "diariefordahandlingochnamndeprotokoll-18",
        "diariefordahandlingochnamndeprotokoll-19",
        "diariefordahandlingochnamndeprotokoll-161",
        "diariefordahandlingochnamndeprotokoll-171"
      ],
      "nodetype": "URI",
      "type": "group",
      "constraints": {
        "http://www.w3.org/1999/02/22-rdf-syntax-ns#type": [
          "http://www.w3.org/ns/org#OrganizationalUnit"
        ]
      },
      "text": {
        "title": {
          "en": "Organizational unit "
        }
      },
      "about": {
        "rdfType": [
          "https://rdforms.org/terms/Form",
          "https://rdforms.org/terms/ProfileForm"
        ],
        "status": "https://rdforms.org/terms/stable"
      }
    },
    {
      "id": "diariefordahandlingochnamndeprotokoll-34",
      "label": {
        "en": "Identifier",
        "sv": "Identifierare"
      },
      "property": "http://purl.org/dc/terms/identifier",
      "nodetype": "LITERAL",
      "type": "text",
      "cardinality": {
        "pref": 1,
        "max": 1
      },
      "text": {
        "title": {
          "en": "dct:identifier"
        }
      },
      "about": {
        "rdfType": [
          "https://rdforms.org/terms/Field",
          "https://rdforms.org/terms/TextField"
        ],
        "status": "https://rdforms.org/terms/stable"
      }
    },
    {
      "id": "diariefordahandlingochnamndeprotokoll-14",
      "label": {
        "en": "Description",
        "sv": "Beskrivning"
      },
      "property": "http://purl.org/dc/terms/description",
      "nodetype": "LANGUAGE_LITERAL",
      "type": "text",
      "cardinality": {
        "pref": 1,
        "max": 1
      },
      "text": {
        "title": {
          "en": "dcterms:description"
        }
      },
      "about": {
        "rdfType": [
          "https://rdforms.org/terms/Field",
          "https://rdforms.org/terms/TextField"
        ],
        "status": "https://rdforms.org/terms/stable"
      }
    },
    {
      "id": "diariefordahandlingochnamndeprotokoll-44",
      "label": {
        "en": "Date accepted",
        "sv": "Avslutat"
      },
      "property": "http://purl.org/dc/terms/dateAccepted",
      "nodetype": "DATATYPE_LITERAL",
      "type": "text",
      "cardinality": {
        "pref": 1
      },
      "datatype": "http://www.w3.org/2001/XMLSchema#dateTime",
      "text": {
        "title": {
          "en": "dcterms:dateAccepted"
        }
      },
      "about": {
        "rdfType": [
          "https://rdforms.org/terms/Field",
          "https://rdforms.org/terms/DatatypeField"
        ],
        "status": "https://rdforms.org/terms/stable"
      }
    },
    {
      "id": "diariefordahandlingochnamndeprotokoll-3",
      "label": {
        "en": "Date submitted",
        "sv": "Skapat"
      },
      "property": "http://purl.org/dc/terms/dateSubmitted",
      "nodetype": "DATATYPE_LITERAL",
      "type": "text",
      "cardinality": {
        "pref": 1
      },
      "datatype": "http://www.w3.org/2001/XMLSchema#dateTime",
      "text": {
        "title": {
          "en": "dcterms:dateSubmitted"
        }
      },
      "about": {
        "rdfType": [
          "https://rdforms.org/terms/Field",
          "https://rdforms.org/terms/DatatypeField"
        ],
        "status": "https://rdforms.org/terms/unstable"
      }
    },
    {
      "id": "diariefordahandlingochnamndeprotokoll-2",
      "label": {
        "en": "Subject",
        "sv": "Typ"
      },
      "property": "http://purl.org/dc/terms/subject",
      "nodetype": "URI",
      "type": "text",
      "cardinality": {
        "pref": 1
      },
      "text": {
        "title": {
          "en": "dcterms:subject"
        }
      },
      "about": {
        "rdfType": [
          "https://rdforms.org/terms/Field",
          "https://rdforms.org/terms/TextField"
        ],
        "status": "https://rdforms.org/terms/unstable"
      }
    },
    {
      "id": "diariefordahandlingochnamndeprotokoll-166",
      "label": {
        "en": "Direction",
        "sv": "Riktning"
      },
      "property": "http://purl.org/dc/terms/type",
      "nodetype": "URI",
      "type": "choice",
      "cardinality": {
        "pref": 1
      },
      "choices": [
        {
          "value": "http://example.com/Submitted",
          "label": {
            "en": "Submitted",
            "sv": "Inkommen"
          }
        },
        {
          "value": "http://example.com/Outbound",
          "label": {
            "en": "Outbound",
            "sv": "Utgående"
          }
        },
        {
          "value": "http://example.com/Established",
          "label": {
            "en": "Established",
            "sv": "Upprättad"
          }
        }
      ],
      "text": {
        "title": {
          "en": "Document: type (direction)"
        }
      },
      "about": {
        "rdfType": [
          "https://rdforms.org/terms/Field",
          "https://rdforms.org/terms/SelectField"
        ],
        "status": "https://rdforms.org/terms/stable"
      }
    },
    {
      "id": "diariefordahandlingochnamndeprotokoll-168",
      "label": {
        "en": "Sender",
        "sv": "Avsändare"
      },
      "property": "http://purl.org/dc/terms/source",
      "nodetype": "LANGUAGE_LITERAL",
      "type": "text",
      "cardinality": {
        "min": 0
      },
      "text": {
        "title": {
          "en": "Document: source"
        }
      },
      "about": {
        "rdfType": [
          "https://rdforms.org/terms/Field",
          "https://rdforms.org/terms/TextField"
        ],
        "status": "https://rdforms.org/terms/unstable"
      }
    },
    {
      "id": "diariefordahandlingochnamndeprotokoll-169",
      "label": {
        "en": "Reference to committee matter",
        "sv": "Ärendereferens"
      },
      "property": "http://www.w3.org/ns/prov#wasGeneratedBy",
      "nodetype": "URI",
      "type": "choice",
      "cardinality": {
        "min": 0
      },
      "constraints": {
        "http://www.w3.org/1999/02/22-rdf-syntax-ns#type": [
          "http://www.w3.org/ns/prov#Activity"
        ]
      },
      "text": {
        "title": {
          "en": "Document: was generated by > Activity"
        }
      },
      "about": {
        "rdfType": [
          "https://rdforms.org/terms/Field",
          "https://rdforms.org/terms/LookupField"
        ],
        "status": "https://rdforms.org/terms/unstable"
      }
    },
    {
      "id": "diariefordahandlingochnamndeprotokoll-49",
      "label": {
        "sv": "Myndighet",
        "en": "Agency"
      },
      "property": "http://purl.org/dc/terms/publisher",
      "nodetype": "URI",
      "type": "choice",
      "cardinality": {
        "pref": 1,
        "max": 1
      },
      "constraints": {
        "http://purl.org/dc/terms/publisher": [
          "http://www.w3.org/ns/org#OrganizationalUnit"
        ]
      },
      "text": {
        "title": {
          "en": "publisher"
        }
      },
      "about": {
        "rdfType": [
          "https://rdforms.org/terms/Field",
          "https://rdforms.org/terms/LookupField"
        ],
        "status": "https://rdforms.org/terms/unstable"
      }
    },
    {
      "id": "diariefordahandlingochnamndeprotokoll-20",
      "label": {
        "en": "Document",
        "sv": "Handling"
      },
      "items": [
        "diariefordahandlingochnamndeprotokoll-34",
        "diariefordahandlingochnamndeprotokoll-14",
        "diariefordahandlingochnamndeprotokoll-44",
        "diariefordahandlingochnamndeprotokoll-3",
        "diariefordahandlingochnamndeprotokoll-2",
        "diariefordahandlingochnamndeprotokoll-166",
        "diariefordahandlingochnamndeprotokoll-168",
        "diariefordahandlingochnamndeprotokoll-169",
        "diariefordahandlingochnamndeprotokoll-49"
      ],
      "nodetype": "RESOURCE",
      "type": "group",
      "constraints": {
        "http://www.w3.org/1999/02/22-rdf-syntax-ns#type": "http://schema.org/DigitalDocument"
      },
      "text": {
        "title": {
          "en": "Document",
          "sv": "Dokument "
        }
      },
      "about": {
        "rdfType": [
          "https://rdforms.org/terms/Form",
          "https://rdforms.org/terms/ProfileForm"
        ],
        "status": "https://rdforms.org/terms/unstable"
      }
    },
    {
      "id": "diariefordahandlingochnamndeprotokoll-1",
      "label": {
        "sv": "Titel",
        "en": "Title"
      },
      "property": "http://purl.org/dc/terms/title",
      "nodetype": "LITERAL",
      "type": "text",
      "cardinality": {
        "pref": 1,
        "max": 1
      },
      "text": {
        "title": {
          "en": "dcterms:title"
        }
      },
      "about": {
        "rdfType": [
          "https://rdforms.org/terms/Field",
          "https://rdforms.org/terms/TextField"
        ],
        "status": "https://rdforms.org/terms/stable"
      }
    },
    {
      "id": "diariefordahandlingochnamndeprotokoll-160",
      "label": {
        "en": "Activity: activity type (using eli NAL) ",
        "sv": "Typ av nämndsärende"
      },
      "property": "http://purl.org/dc/terms/type",
      "nodetype": "URI",
      "type": "choice",
      "cardinality": {
        "min": 0
      },
      "constraints": {
        "http://www.w3.org/1999/02/22-rdf-syntax-ns#type": [
          "http://data.europa.eu/eli/eli-draft-legislation-ontology#ActivityType"
        ],
        "http://www.w3.org/2004/02/skos/core#inScheme": [
          "https://dataportal.se/concepts/activitytype"
        ]
      },
      "text": {
        "title": {
          "en": "Activity: activity type (using eli NAL) "
        }
      },
      "about": {
        "rdfType": [
          "https://rdforms.org/terms/Field",
          "https://rdforms.org/terms/LookupField"
        ],
        "status": "https://rdforms.org/terms/unstable"
      }
    },
    {
      "id": "diariefordahandlingochnamndeprotokoll-155",
      "label": {
        "en": "Generated",
        "sv": "Skapade"
      },
      "property": "http://www.w3.org/ns/prov#generated",
      "nodetype": "URI",
      "type": "choice",
      "cardinality": {
        "min": 0
      },
      "constraints": {
        "http://www.w3.org/1999/02/22-rdf-syntax-ns#type": "http://schema.org/DigitalDocument"
      },
      "text": {
        "title": {
          "en": "prov:generated"
        }
      },
      "about": {
        "rdfType": [
          "https://rdforms.org/terms/Field",
          "https://rdforms.org/terms/LookupField"
        ],
        "status": "https://rdforms.org/terms/unstable"
      }
    },
    {
      "id": "diariefordahandlingochnamndeprotokoll-43",
      "label": {
        "sv": "Nämndsärende",
        "en": "Commitee matter"
      },
      "items": [
        "diariefordahandlingochnamndeprotokoll-1",
        "diariefordahandlingochnamndeprotokoll-160",
        "diariefordahandlingochnamndeprotokoll-14",
        "diariefordahandlingochnamndeprotokoll-34",
        "diariefordahandlingochnamndeprotokoll-3",
        "diariefordahandlingochnamndeprotokoll-44",
        "diariefordahandlingochnamndeprotokoll-49",
        "diariefordahandlingochnamndeprotokoll-155"
      ],
      "nodetype": "URI",
      "type": "group",
      "constraints": {
        "http://www.w3.org/1999/02/22-rdf-syntax-ns#type": [
          "http://www.w3.org/ns/prov#Activity"
        ]
      },
      "text": {
        "title": {
          "sv": "Nämndsärende",
          "en": "Committee matter"
        }
      },
      "about": {
        "rdfType": [
          "https://rdforms.org/terms/Form",
          "https://rdforms.org/terms/ProfileForm"
        ],
        "status": "https://rdforms.org/terms/unstable"
      }
    },
    {
      "id": "diariefordahandlingochnamndeprotokoll-55",
      "label": {
        "en": "Organization"
      },
      "items": [
        "diariefordahandlingochnamndeprotokoll-5",
        "diariefordahandlingochnamndeprotokoll-8"
      ],
      "nodetype": "RESOURCE",
      "type": "group",
      "constraints": {
        "http://www.w3.org/1999/02/22-rdf-syntax-ns#type": [
          "http://www.w3.org/ns/org#Organization"
        ]
      },
      "text": {
        "title": {
          "en": "Organization"
        }
      },
      "about": {
        "rdfType": [
          "https://rdforms.org/terms/Form",
          "https://rdforms.org/terms/ProfileForm"
        ],
        "status": "https://rdforms.org/terms/unstable"
      }
    }
  ],
  "namespaces": {
    "rdf": "http://www.w3.org/1999/02/22-rdf-syntax-ns#",
    "skos": "http://www.w3.org/2004/02/skos/core#",
    "org": "http://www.w3.org/ns/org#",
    "foaf": "http://xmlns.com/foaf/0.1/",
    "schema": "http://schema.org/",
    "prov": "http://www.w3.org/ns/prov#",
    "dcterms": "http://purl.org/dc/terms/",
    "ex": "http://example.com/"
  }
}