{
    "templates": [
      {
        "id": "diariefordahandlingochnamndeprotokoll-5",
        "label": {
          "en": "Official name",
          "sv": "Officiellt namn"
        },
        "property": "http://www.w3.org/2004/02/skos/core#prefLabel",
        "nodetype": "LANGUAGE_LITERAL",
        "type": "text",
        "cardinality": {
          "min": 1
        }
      },
      {
        "id": "diariefordahandlingochnamndeprotokoll-8",
        "label": {
          "en": "Homepage",
          "sv": "Hemsida"
        },
        "property": "http://xmlns.com/foaf/0.1/homepage",
        "nodetype": "URI",
        "type": "text",
        "cardinality": {
          "min": 1,
          "max": 1
        }
      },
      {
        "id": "diariefordahandlingochnamndeprotokoll-18",
        "label": {
          "en": "Telephone number",
          "sv": "Telefonnummer"
        },
        "property": "http://schema.org/telephone",
        "nodetype": "LITERAL",
        "type": "text",
        "cardinality": {
          "pref": 1
        }
      },
      {
        "id": "diariefordahandlingochnamndeprotokoll-19",
        "label": {
          "en": "Email",
          "sv": "Email"
        },
        "property": "http://schema.org/email",
        "nodetype": "ONLY_LITERAL",
        "type": "text",
        "cardinality": {
          "pref": 1
        }
      },
      {
        "id": "diariefordahandlingochnamndeprotokoll-54",
        "label": {
          "en": "Committee",
          "sv": "Nämnd"
        },
        "items": [
          "diariefordahandlingochnamndeprotokoll-5",
          "diariefordahandlingochnamndeprotokoll-8",
          "diariefordahandlingochnamndeprotokoll-18",
          "diariefordahandlingochnamndeprotokoll-19"
        ],
        "nodetype": "URI",
        "type": "group",
        "constraints": {
          "http://www.w3.org/1999/02/22-rdf-syntax-ns#type": "http://www.w3.org/ns/org#OrganizationalUnit"
        }
      },
      {
        "id": "diariefordahandlingochnamndeprotokoll-1",
        "label": {
          "sv": "Titel",
          "en": "Title"
        },
        "property": "http://purl.org/dc/terms/title",
        "nodetype": "LITERAL",
        "type": "text",
        "cardinality": {
          "pref": 1,
          "max": 1
        }
      },
      {
        "id": "diariefordahandlingochnamndeprotokoll-14",
        "label": {
          "en": "Description",
          "sv": "Beskrivning"
        },
        "property": "http://purl.org/dc/terms/description",
        "nodetype": "LANGUAGE_LITERAL",
        "type": "text",
        "cardinality": {
          "pref": 1,
          "max": 1
        }
      },
      {
        "id": "diariefordahandlingochnamndeprotokoll-34",
        "label": {
          "en": "Identifier",
          "sv": "Identifierare"
        },
        "property": "http://purl.org/dc/terms/identifier",
        "nodetype": "LITERAL",
        "type": "text",
        "cardinality": {
          "pref": 1,
          "max": 1
        }
      },
      {
        "id": "diariefordahandlingochnamndeprotokoll-2",
        "label": {
          "en": "Subject",
          "sv": "Typ"
        },
        "property": "http://purl.org/dc/terms/subject",
        "nodetype": "URI",
        "type": "text",
        "cardinality": {
          "pref": 1
        }
      },
      {
        "id": "diariefordahandlingochnamndeprotokoll-3",
        "label": {
          "en": "Date submitted",
          "sv": "Skapat"
        },
        "property": "http://purl.org/dc/terms/dateSubmitted",
        "nodetype": "DATATYPE_LITERAL",
        "type": "text",
        "cardinality": {
          "pref": 1
        },
        "datatype": "http://www.w3.org/2001/XMLSchema#dateTime"
      },
      {
        "id": "diariefordahandlingochnamndeprotokoll-44",
        "label": {
          "en": "Date accepted",
          "sv": "Avslutat"
        },
        "property": "http://purl.org/dc/terms/dateAccepted",
        "nodetype": "DATATYPE_LITERAL",
        "type": "text",
        "cardinality": {
          "pref": 1
        },
        "datatype": "http://www.w3.org/2001/XMLSchema#dateTime"
      },
      {
        "id": "diariefordahandlingochnamndeprotokoll-49",
        "label": {
          "sv": "Myndighet",
          "en": "Agency"
        },
        "property": "http://purl.org/dc/terms/publisher",
        "nodetype": "URI",
        "type": "choice",
        "cardinality": {
          "pref": 1,
          "max": 1
        },
        "constraints": {
          "http://purl.org/dc/terms/publisher": "http://www.w3.org/ns/org#Organization"
        }
      },
      {
        "id": "diariefordahandlingochnamndeprotokoll-52",
        "label": {
          "en": "Committee unit",
          "sv": "Typ av nämnd"
        },
        "property": "http://www.w3.org/1999/02/22-rdf-syntax-ns#type",
        "nodetype": "URI",
        "type": "choice",
        "cardinality": {
          "pref": 1
        },
        "constraints": {
          "http://www.w3.org/1999/02/22-rdf-syntax-ns#type": "http://www.w3.org/ns/org#OrganizationalUnit"
        }
      },
      {
        "id": "diariefordahandlingochnamndeprotokoll-43",
        "label": {
          "sv": "Nämndsärende",
          "en": "Committee matter"
        },
        "items": [
          "diariefordahandlingochnamndeprotokoll-1",
          "diariefordahandlingochnamndeprotokoll-14",
          "diariefordahandlingochnamndeprotokoll-34",
          "diariefordahandlingochnamndeprotokoll-2",
          "diariefordahandlingochnamndeprotokoll-3",
          "diariefordahandlingochnamndeprotokoll-44",
          "diariefordahandlingochnamndeprotokoll-49",
          "diariefordahandlingochnamndeprotokoll-52"
        ],
        "nodetype": "URI",
        "type": "group",
        "constraints": {
          "http://www.w3.org/1999/02/22-rdf-syntax-ns#type": "http://w3.org/ex/Issue"
        }
      },
      {
        "id": "diariefordahandlingochnamndeprotokoll-55",
        "label": {
          "en": "Organization",
          "sv": "Organisation"
        },
        "items": [
          "diariefordahandlingochnamndeprotokoll-5",
          "diariefordahandlingochnamndeprotokoll-8"
        ],
        "nodetype": "RESOURCE",
        "type": "group",
        "constraints": {
          "http://www.w3.org/1999/02/22-rdf-syntax-ns#type": "http://www.w3.org/ns/org#Organization"
        }
      },
      {
        "id": "diariefordahandlingochnamndeprotokoll-20",
        "label": {
          "en": "Document",
          "sv": "Handling"
        },
        "items": [
          "diariefordahandlingochnamndeprotokoll-34",
          "diariefordahandlingochnamndeprotokoll-14",
          "diariefordahandlingochnamndeprotokoll-44",
          "diariefordahandlingochnamndeprotokoll-3",
          "diariefordahandlingochnamndeprotokoll-2"
        ],
        "nodetype": "RESOURCE",
        "type": "group",
        "constraints": {
          "http://www.w3.org/1999/02/22-rdf-syntax-ns#type": "http://schema.org/DigitalDocument"
        }
      }
    ],
    "namespaces": {
      "skos": "http://www.w3.org/2004/02/skos/core#",
      "foaf": "http://xmlns.com/foaf/0.1/",
      "schema": "http://schema.org/",
      "org": "http://www.w3.org/ns/org#",
      "rdf": "http://www.w3.org/1999/02/22-rdf-syntax-ns#",
      "dcterms": "http://purl.org/dc/terms/"
    }
  }